<?xml version="1.0" encoding="utf-8"?>
<!-- Generator: Adobe Illustrator 16.0.4, SVG Export Plug-In . SVG Version: 6.00 Build 0)  -->
<!DOCTYPE svg PUBLIC "-//W3C//DTD SVG 1.1//EN" "http://www.w3.org/Graphics/SVG/1.1/DTD/svg11.dtd">
<svg version="1.1" id="Warstwa_1" xmlns="http://www.w3.org/2000/svg" xmlns:xlink="http://www.w3.org/1999/xlink" x="0px" y="0px"
	 width="30px" height="30px" viewBox="0 0 30 30" enable-background="new 0 0 30 30" xml:space="preserve">
<g>
	
		<linearGradient id="SVGID_1_" gradientUnits="userSpaceOnUse" x1="-1412.6509" y1="1292.2363" x2="-1412.6509" y2="1321.4824" gradientTransform="matrix(1 0 0 1 1427.6504 -1291.8594)">
		<stop  offset="0" style="stop-color:#009241"/>
		<stop  offset="0.0384" style="stop-color:#009241"/>
		<stop  offset="1" style="stop-color:#009241"/>
	</linearGradient>
	<circle fill="url(#SVGID_1_)" cx="15" cy="15" r="14.623"/>
	
		<linearGradient id="SVGID_2_" gradientUnits="userSpaceOnUse" x1="-1412.6504" y1="1293.0508" x2="-1412.6504" y2="1306.0889" gradientTransform="matrix(1 0 0 1 1427.6504 -1291.8594)">
		<stop  offset="0" style="stop-color:#FFFFFF"/>
		<stop  offset="0.0812" style="stop-color:#DAEFE4"/>
		<stop  offset="0.2216" style="stop-color:#A1D7B9"/>
		<stop  offset="0.3623" style="stop-color:#70C294"/>
		<stop  offset="0.5002" style="stop-color:#48B176"/>
		<stop  offset="0.6347" style="stop-color:#28A35F"/>
		<stop  offset="0.7649" style="stop-color:#129A4E"/>
		<stop  offset="0.8889" style="stop-color:#059444"/>
		<stop  offset="1" style="stop-color:#009241"/>
	</linearGradient>
	<ellipse fill="url(#SVGID_2_)" cx="15" cy="7.711" rx="10.023" ry="6.519"/>
	<path fill="#FFFFFF" d="M24.343,22.345c-0.243,0.021-0.465,0.031-0.663,0.031c-0.994-0.004-1.373-0.242-1.521-0.396
		c-0.151-0.151-0.222-0.366-0.226-0.683c0-0.188,0.031-0.389,0.067-0.54c1.469-1.665,2.36-3.851,2.36-6.244
		c0-5.218-4.229-9.446-9.446-9.446c-5.219,0-9.448,4.229-9.448,9.446c0,5.218,4.229,9.447,9.448,9.447
		c1.897,0,3.665-0.562,5.146-1.523c0.125,0.345,0.321,0.688,0.627,0.998c0.655,0.66,1.662,1.006,2.968,1.006
		c0.009,0,0.018,0,0.022,0c0.268,0,0.551-0.015,0.85-0.041L24.343,22.345z M9.75,17.174c-1.284,0-2.325-1.188-2.325-2.657
		s1.04-2.656,2.325-2.656c1.283,0,2.324,1.188,2.324,2.656C12.074,15.984,11.033,17.174,9.75,17.174z M14.916,22.008
		c-1.469,0-2.657-1.04-2.657-2.324c0-1.283,1.188-2.324,2.657-2.324c1.467,0,2.656,1.041,2.656,2.324
		C17.572,20.968,16.382,22.008,14.916,22.008z M13.636,14.517c0-0.705,0.572-1.279,1.279-1.279c0.705,0,1.278,0.574,1.278,1.279
		c0,0.707-0.573,1.279-1.278,1.279C14.209,15.796,13.636,15.224,13.636,14.517z M14.916,11.676c-1.469,0-2.657-1.042-2.657-2.325
		c0-1.283,1.188-2.324,2.657-2.324c1.467,0,2.656,1.041,2.656,2.324C17.572,10.634,16.382,11.676,14.916,11.676z M17.757,14.517
		c0-1.467,1.041-2.656,2.325-2.656c1.283,0,2.322,1.188,2.322,2.656c0,1.467-1.039,2.657-2.322,2.657
		C18.797,17.174,17.757,15.984,17.757,14.517z"/>
</g>
</svg>
